HPSrf,Vh>E'-
B/`A/4CbJX
0@CEch#Y=%AE'w
f>f''BzRz5e_g'fm
+L?JDpj'1!xYet(A<#
ff5/>xxoH.e
8e>&fA=FF"
eEE;&7l+DAM
B&%d'un?d}
IoM9\H|Ltzd
x.{6+V?gv\szs
%AEQW[/Vt"q
Fsc<=^&:@b
8$iKArF~mL%F
sb@4C%$F)Rap
LX|aeEmJ/,%
gkJaI8=-eZ-q
[Ty.[,DId{m<7E
R6FB:hddz>DRt
+cWD,".P_$6=
+SuNsF)`uG3PbOdpB
{*(tJowt#}\su%\
C_`BVu[Xhs7t>
laJ~eb]Hcy%E2eO
s.,5*a`ccpE
1ZznqC-`|#
o3\jR*%eDrOj$
B8O[.Z`!qbbL:jf`dZ
x(]CAHZ+z_f.'4f.&Zp}
wS/FqtO^3~h'fN
xKuHg"a_Ml#uA
E&BN|4/B*kUXb
cJ|v+DEg3_
Xn+'7l(fe_[DCf
